%YAML 1.1
%TAG !u! tag:unity3d.com,2011:
--- !u!1 &100000
GameObject:
  m_ObjectHideFlags: 0
  m_PrefabParentObject: {fileID: 0}
  m_PrefabInternal: {fileID: 100100000}
  serializedVersion: 4
  m_Component:
  - 4: {fileID: 400000}
  - 33: {fileID: 3300000}
  - 23: {fileID: 2300000}
  m_Layer: 0
  m_Name: Clouds
  m_TagString: Untagged
  m_Icon: {fileID: 0}
  m_NavMeshLayer: 0
  m_StaticEditorFlags: 0
  m_IsActive: 1
--- !u!1 &100002
GameObject:
  m_ObjectHideFlags: 0
  m_PrefabParentObject: {fileID: 0}
  m_PrefabInternal: {fileID: 100100000}
  serializedVersion: 4
  m_Component:
  - 4: {fileID: 400002}
  - 33: {fileID: 3300002}
  - 23: {fileID: 2300002}
  m_Layer: 0
  m_Name: Space
  m_TagString: Untagged
  m_Icon: {fileID: 0}
  m_NavMeshLayer: 0
  m_StaticEditorFlags: 0
  m_IsActive: 1
--- !u!1 &100004
GameObject:
  m_ObjectHideFlags: 0
  m_PrefabParentObject: {fileID: 0}
  m_PrefabInternal: {fileID: 100100000}
  serializedVersion: 4
  m_Component:
  - 4: {fileID: 400004}
  - 33: {fileID: 3300004}
  - 23: {fileID: 2300004}
  m_Layer: 0
  m_Name: Sun
  m_TagString: Untagged
  m_Icon: {fileID: 0}
  m_NavMeshLayer: 0
  m_StaticEditorFlags: 0
  m_IsActive: 1
--- !u!1 &100006
GameObject:
  m_ObjectHideFlags: 0
  m_PrefabParentObject: {fileID: 0}
  m_PrefabInternal: {fileID: 100100000}
  serializedVersion: 4
  m_Component:
  - 4: {fileID: 400006}
  - 33: {fileID: 3300006}
  - 23: {fileID: 2300006}
  m_Layer: 0
  m_Name: Atmosphere
  m_TagString: Untagged
  m_Icon: {fileID: 0}
  m_NavMeshLayer: 0
  m_StaticEditorFlags: 0
  m_IsActive: 1
--- !u!1 &100008
GameObject:
  m_ObjectHideFlags: 0
  m_PrefabParentObject: {fileID: 0}
  m_PrefabInternal: {fileID: 100100000}
  serializedVersion: 4
  m_Component:
  - 4: {fileID: 400008}
  - 33: {fileID: 3300008}
  - 23: {fileID: 2300008}
  m_Layer: 0
  m_Name: Moon
  m_TagString: Untagged
  m_Icon: {fileID: 0}
  m_NavMeshLayer: 0
  m_StaticEditorFlags: 0
  m_IsActive: 1
--- !u!1 &100010
GameObject:
  m_ObjectHideFlags: 0
  m_PrefabParentObject: {fileID: 0}
  m_PrefabInternal: {fileID: 100100000}
  serializedVersion: 4
  m_Component:
  - 4: {fileID: 400010}
  - 114: {fileID: 11400002}
  - 114: {fileID: 11400008}
  - 114: {fileID: 11400004}
  - 114: {fileID: 11400006}
  - 114: {fileID: 11400000}
  - 114: {fileID: 11400010}
  m_Layer: 0
  m_Name: Sky Dome
  m_TagString: Untagged
  m_Icon: {fileID: 0}
  m_NavMeshLayer: 0
  m_StaticEditorFlags: 0
  m_IsActive: 1
--- !u!1 &100012
GameObject:
  m_ObjectHideFlags: 0
  m_PrefabParentObject: {fileID: 0}
  m_PrefabInternal: {fileID: 100100000}
  serializedVersion: 4
  m_Component:
  - 4: {fileID: 400012}
  - 108: {fileID: 10800000}
  m_Layer: 0
  m_Name: Light
  m_TagString: Untagged
  m_Icon: {fileID: 0}
  m_NavMeshLayer: 0
  m_StaticEditorFlags: 0
  m_IsActive: 1
--- !u!1 &100014
GameObject:
  m_ObjectHideFlags: 0
  m_PrefabParentObject: {fileID: 0}
  m_PrefabInternal: {fileID: 100100000}
  serializedVersion: 4
  m_Component:
  - 4: {fileID: 400014}
  - 119: {fileID: 11900000}
  m_Layer: 0
  m_Name: Projector
  m_TagString: Untagged
  m_Icon: {fileID: 0}
  m_NavMeshLayer: 0
  m_StaticEditorFlags: 0
  m_IsActive: 1
--- !u!4 &400000
Transform:
  m_ObjectHideFlags: 1
  m_PrefabParentObject: {fileID: 0}
  m_PrefabInternal: {fileID: 100100000}
  m_GameObject: {fileID: 100000}
  m_LocalRotation: {x: 0, y: 0, z: 0, w: 1}
  m_LocalPosition: {x: 0, y: 0, z: 0}
  m_LocalScale: {x: 1, y: 1, z: 1}
  m_Children: []
  m_Father: {fileID: 400010}
--- !u!4 &400002
Transform:
  m_ObjectHideFlags: 1
  m_PrefabParentObject: {fileID: 0}
  m_PrefabInternal: {fileID: 100100000}
  m_GameObject: {fileID: 100002}
  m_LocalRotation: {x: 0, y: 0, z: 0, w: 1}
  m_LocalPosition: {x: 0, y: 0, z: 0}
  m_LocalScale: {x: 1, y: 1, z: 1}
  m_Children: []
  m_Father: {fileID: 400010}
--- !u!4 &400004
Transform:
  m_ObjectHideFlags: 1
  m_PrefabParentObject: {fileID: 0}
  m_PrefabInternal: {fileID: 100100000}
  m_GameObject: {fileID: 100004}
  m_LocalRotation: {x: .101569682, y: -.207251161, z: .596592128, w: .768640697}
  m_LocalPosition: {x: .197411984, y: .403429925, z: -.893461049}
  m_LocalScale: {x: .0698149428, y: .0698149428, z: .0698149428}
  m_Children: []
  m_Father: {fileID: 400010}
--- !u!4 &400006
Transform:
  m_ObjectHideFlags: 1
  m_PrefabParentObject: {fileID: 0}
  m_PrefabInternal: {fileID: 100100000}
  m_GameObject: {fileID: 100006}
  m_LocalRotation: {x: 0, y: 0, z: 0, w: 1}
  m_LocalPosition: {x: 0, y: 0, z: 0}
  m_LocalScale: {x: 1, y: 1, z: 1}
  m_Children: []
  m_Father: {fileID: 400010}
--- !u!4 &400008
Transform:
  m_ObjectHideFlags: 1
  m_PrefabParentObject: {fileID: 0}
  m_PrefabInternal: {fileID: 100100000}
  m_GameObject: {fileID: 100008}
  m_LocalRotation: {x: -.0223695487, y: .97274363, z: .204925179, w: .106184296}
  m_LocalPosition: {x: -.197412014, y: -.403429866, z: .893461108}
  m_LocalScale: {x: .0349074714, y: .0349074714, z: .0349074714}
  m_Children: []
  m_Father: {fileID: 400010}
--- !u!4 &400010
Transform:
  m_ObjectHideFlags: 1
  m_PrefabParentObject: {fileID: 0}
  m_PrefabInternal: {fileID: 100100000}
  m_GameObject: {fileID: 100010}
  m_LocalRotation: {x: 0, y: 0, z: 0, w: 1}
  m_LocalPosition: {x: 0, y: 0, z: 0}
  m_LocalScale: {x: 400, y: 400, z: 400}
  m_Children:
  - {fileID: 400008}
  - {fileID: 400000}
  - {fileID: 400006}
  - {fileID: 400004}
  - {fileID: 400002}
  - {fileID: 400014}
  - {fileID: 400012}
  m_Father: {fileID: 0}
--- !u!4 &400012
Transform:
  m_ObjectHideFlags: 1
  m_PrefabParentObject: {fileID: 0}
  m_PrefabInternal: {fileID: 100100000}
  m_GameObject: {fileID: 100012}
  m_LocalRotation: {x: .101569682, y: -.207251161, z: .596592128, w: .768640697}
  m_LocalPosition: {x: .197411969, y: .403429896, z: -.893461049}
  m_LocalScale: {x: 1, y: 1, z: 1}
  m_Children: []
  m_Father: {fileID: 400010}
--- !u!4 &400014
Transform:
  m_ObjectHideFlags: 1
  m_PrefabParentObject: {fileID: 0}
  m_PrefabInternal: {fileID: 100100000}
  m_GameObject: {fileID: 100014}
  m_LocalRotation: {x: .707106888, y: 0, z: 0, w: .707106769}
  m_LocalPosition: {x: 0, y: 1, z: 0}
  m_LocalScale: {x: 1, y: 1, z: 1}
  m_Children: []
  m_Father: {fileID: 400010}
--- !u!23 &2300000
Renderer:
  m_ObjectHideFlags: 1
  m_PrefabParentObject: {fileID: 0}
  m_PrefabInternal: {fileID: 100100000}
  m_GameObject: {fileID: 100000}
  m_Enabled: 1
  m_CastShadows: 0
  m_ReceiveShadows: 0
  m_LightmapIndex: 255
  m_LightmapTilingOffset: {x: 1, y: 1, z: 0, w: 0}
  m_Materials:
  - {fileID: 2100000, guid: 2d294b9b8546c49a1aea2f94bcffa143, type: 2}
  m_SubsetIndices: 
  m_StaticBatchRoot: {fileID: 0}
  m_UseLightProbes: 0
  m_LightProbeAnchor: {fileID: 0}
  m_ScaleInLightmap: 1
  m_SortingLayer: 0
  m_SortingOrder: 0
  m_SortingLayerID: 0
--- !u!23 &2300002
Renderer:
  m_ObjectHideFlags: 1
  m_PrefabParentObject: {fileID: 0}
  m_PrefabInternal: {fileID: 100100000}
  m_GameObject: {fileID: 100002}
  m_Enabled: 0
  m_CastShadows: 0
  m_ReceiveShadows: 0
  m_LightmapIndex: 255
  m_LightmapTilingOffset: {x: 1, y: 1, z: 0, w: 0}
  m_Materials:
  - {fileID: 2100000, guid: 783a84bd037e94563b5800fee6d80236, type: 2}
  m_SubsetIndices: 
  m_StaticBatchRoot: {fileID: 0}
  m_UseLightProbes: 0
  m_LightProbeAnchor: {fileID: 0}
  m_ScaleInLightmap: 1
  m_SortingLayer: 0
  m_SortingOrder: 0
  m_SortingLayerID: 0
--- !u!23 &2300004
Renderer:
  m_ObjectHideFlags: 1
  m_PrefabParentObject: {fileID: 0}
  m_PrefabInternal: {fileID: 100100000}
  m_GameObject: {fileID: 100004}
  m_Enabled: 1
  m_CastShadows: 0
  m_ReceiveShadows: 0
  m_LightmapIndex: 255
  m_LightmapTilingOffset: {x: 1, y: 1, z: 0, w: 0}
  m_Materials:
  - {fileID: 2100000, guid: a58b7582af81445b2b65582c333c81cf, type: 2}
  m_SubsetIndices: 
  m_StaticBatchRoot: {fileID: 0}
  m_UseLightProbes: 0
  m_LightProbeAnchor: {fileID: 0}
  m_ScaleInLightmap: 1
  m_SortingLayer: 0
  m_SortingOrder: 0
  m_SortingLayerID: 0
--- !u!23 &2300006
Renderer:
  m_ObjectHideFlags: 1
  m_PrefabParentObject: {fileID: 0}
  m_PrefabInternal: {fileID: 100100000}
  m_GameObject: {fileID: 100006}
  m_Enabled: 1
  m_CastShadows: 0
  m_ReceiveShadows: 0
  m_LightmapIndex: 255
  m_LightmapTilingOffset: {x: 1, y: 1, z: 0, w: 0}
  m_Materials:
  - {fileID: 2100000, guid: ae3989796c2a72248a02612611f06beb, type: 2}
  m_SubsetIndices: 
  m_StaticBatchRoot: {fileID: 0}
  m_UseLightProbes: 0
  m_LightProbeAnchor: {fileID: 0}
  m_ScaleInLightmap: 1
  m_SortingLayer: 0
  m_SortingOrder: 0
  m_SortingLayerID: 0
--- !u!23 &2300008
Renderer:
  m_ObjectHideFlags: 1
  m_PrefabParentObject: {fileID: 0}
  m_PrefabInternal: {fileID: 100100000}
  m_GameObject: {fileID: 100008}
  m_Enabled: 0
  m_CastShadows: 0
  m_ReceiveShadows: 0
  m_LightmapIndex: 255
  m_LightmapTilingOffset: {x: 1, y: 1, z: 0, w: 0}
  m_Materials:
  - {fileID: 2100000, guid: 9bd49f273bcad4f65b15d63204880849, type: 2}
  m_SubsetIndices: 
  m_StaticBatchRoot: {fileID: 0}
  m_UseLightProbes: 0
  m_LightProbeAnchor: {fileID: 0}
  m_ScaleInLightmap: 1
  m_SortingLayer: 0
  m_SortingOrder: 0
  m_SortingLayerID: 0
--- !u!33 &3300000
MeshFilter:
  m_ObjectHideFlags: 1
  m_PrefabParentObject: {fileID: 0}
  m_PrefabInternal: {fileID: 100100000}
  m_GameObject: {fileID: 100000}
  m_Mesh: {fileID: 4300000, guid: 2b97ce8bbd92c4fe89a35b45df219ed8, type: 3}
--- !u!33 &3300002
MeshFilter:
  m_ObjectHideFlags: 1
  m_PrefabParentObject: {fileID: 0}
  m_PrefabInternal: {fileID: 100100000}
  m_GameObject: {fileID: 100002}
  m_Mesh: {fileID: 4300000, guid: f9321b1b02f3747ea975a6ac95e4f1a5, type: 3}
--- !u!33 &3300004
MeshFilter:
  m_ObjectHideFlags: 1
  m_PrefabParentObject: {fileID: 0}
  m_PrefabInternal: {fileID: 100100000}
  m_GameObject: {fileID: 100004}
  m_Mesh: {fileID: 4300000, guid: 72d48481420e74e6ab1ff98ea81e467d, type: 3}
--- !u!33 &3300006
MeshFilter:
  m_ObjectHideFlags: 1
  m_PrefabParentObject: {fileID: 0}
  m_PrefabInternal: {fileID: 100100000}
  m_GameObject: {fileID: 100006}
  m_Mesh: {fileID: 4300000, guid: f9321b1b02f3747ea975a6ac95e4f1a5, type: 3}
--- !u!33 &3300008
MeshFilter:
  m_ObjectHideFlags: 1
  m_PrefabParentObject: {fileID: 0}
  m_PrefabInternal: {fileID: 100100000}
  m_GameObject: {fileID: 100008}
  m_Mesh: {fileID: 4300000, guid: e5e4d9780cefe4fe8b5997d295e3fc99, type: 3}
--- !u!108 &10800000
Light:
  m_ObjectHideFlags: 1
  m_PrefabParentObject: {fileID: 0}
  m_PrefabInternal: {fileID: 100100000}
  m_GameObject: {fileID: 100012}
  m_Enabled: 1
  serializedVersion: 3
  m_Type: 1
  m_Color: {r: .958825052, g: .861005247, b: .700551689, a: 1}
  m_Intensity: .75
  m_Range: 10
  m_SpotAngle: 30
  m_CookieSize: 10
  m_Shadows:
    m_Type: 2
    m_Resolution: -1
    m_Strength: 1
    m_Bias: .0500000007
    m_Softness: 4
    m_SoftnessFade: 1
  m_Cookie: {fileID: 0}
  m_DrawHalo: 0
  m_ActuallyLightmapped: 0
  m_Flare: {fileID: 0}
  m_RenderMode: 0
  m_CullingMask:
    serializedVersion: 2
    m_Bits: 4294967295
  m_Lightmapping: 1
  m_ShadowSamples: 1
  m_ShadowRadius: 0
  m_ShadowAngle: 0
  m_IndirectIntensity: 1
  m_AreaSize: {x: 1, y: 1}
--- !u!114 &11400000
MonoBehaviour:
  m_ObjectHideFlags: 1
  m_PrefabParentObject: {fileID: 0}
  m_PrefabInternal: {fileID: 100100000}
  m_GameObject: {fileID: 100010}
  m_Enabled: 1
  m_EditorHideFlags: 0
  m_Script: {fileID: 11500000, guid: 0886c13a75c854b46ab2e93dcc0a091b, type: 3}
  m_Name: 
  m_EditorClassIdentifier: 
  Sun: {fileID: 100004}
  Moon: {fileID: 100008}
  Atmosphere: {fileID: 100006}
  Clouds: {fileID: 100000}
  Space: {fileID: 100002}
  Light: {fileID: 100012}
  Projector: {fileID: 100014}
--- !u!114 &11400002
MonoBehaviour:
  m_ObjectHideFlags: 1
  m_PrefabParentObject: {fileID: 0}
  m_PrefabInternal: {fileID: 100100000}
  m_GameObject: {fileID: 100010}
  m_Enabled: 1
  m_EditorHideFlags: 0
  m_Script: {fileID: 11500000, guid: e3096e00ab1b90d4cbf773a7c8bfa5a4, type: 3}
  m_Name: 
  m_EditorClassIdentifier: 
  UnityColorSpace: 0
  CloudQuality: 2
  MeshQuality: 2
  Cycle:
    Hour: 12
    Day: 1
    Month: 3
    Year: 2000
    MoonPhase: 0
    Latitude: 58
    Longitude: 5
    UTC: 1
  Atmosphere:
    ScatteringColor: {r: 1, g: 1, b: 1, a: 1}
    RayleighMultiplier: 1
    MieMultiplier: 1
    Brightness: 1
    Contrast: 1
    Directionality: .5
    Haziness: .5
    Fogginess: 0
  Day:
    AdditiveColor: {r: 0, g: 0, b: 0, a: 1}
    SunMeshColor: {r: 1, g: .913725495, b: .70588237, a: 1}
    SunLightColor: {r: 1, g: .952941179, b: .917647064, a: 1}
    SunMeshSize: 1
    SunLightIntensity: .75
    AmbientIntensity: .75
    ShadowStrength: 1
    SkyMultiplier: 1
    CloudMultiplier: 1
  Night:
    AdditiveColor: {r: 0, g: 0, b: 0, a: 1}
    MoonMeshColor: {r: 1, g: .913725495, b: .784313738, a: 1}
    MoonLightColor: {r: .709803939, g: .800000012, b: 1, a: 1}
    MoonHaloColor: {r: .31764707, g: .407843143, b: .607843161, a: 1}
    MoonMeshSize: 1
    MoonLightIntensity: .100000001
    AmbientIntensity: .200000003
    ShadowStrength: 1
    SkyMultiplier: .100000001
    CloudMultiplier: .200000003
  Light:
    Falloff: .699999988
    Coloring: .5
    SkyColoring: 0
    CloudColoring: .25
  Stars:
    Tiling: 2
    Density: .5
  Clouds:
    Density: 3
    Sharpness: 3
    Brightness: 1
    Scale1: 3
    Scale2: 7
    ShadowStrength: 0
  World:
    SetAmbientLight: 1
    SetFogColor: 1
    FogColorBias: 0
    ViewerHeight: 0
    HorizonOffset: 0
--- !u!114 &11400004
MonoBehaviour:
  m_ObjectHideFlags: 1
  m_PrefabParentObject: {fileID: 0}
  m_PrefabInternal: {fileID: 100100000}
  m_GameObject: {fileID: 100010}
  m_Enabled: 1
  m_EditorHideFlags: 0
  m_Script: {fileID: 11500000, guid: 47f048f256d29b7428352774558a9860, type: 3}
  m_Name: 
  m_EditorClassIdentifier: 
  DayLengthInMinutes: 15
  ProgressDate: 0
  ProgressMoonPhase: 0
--- !u!114 &11400006
MonoBehaviour:
  m_ObjectHideFlags: 1
  m_PrefabParentObject: {fileID: 0}
  m_PrefabInternal: {fileID: 100100000}
  m_GameObject: {fileID: 100010}
  m_Enabled: 1
  m_EditorHideFlags: 0
  m_Script: {fileID: 11500000, guid: efb152cd0e03e46aaa7c8f92ee33ed17, type: 3}
  m_Name: 
  m_EditorClassIdentifier: 
  FadeTime: 10
  Clouds: 0
  Weather: 4
--- !u!114 &11400008
MonoBehaviour:
  m_ObjectHideFlags: 1
  m_PrefabParentObject: {fileID: 0}
  m_PrefabInternal: {fileID: 100100000}
  m_GameObject: {fileID: 100010}
  m_Enabled: 1
  m_EditorHideFlags: 0
  m_Script: {fileID: 11500000, guid: 880e57ac4c7274d3cb5f932495c35c98, type: 3}
  m_Name: 
  m_EditorClassIdentifier: 
  WindDegrees: 0
  WindSpeed: 3
--- !u!114 &11400010
MonoBehaviour:
  m_ObjectHideFlags: 1
  m_PrefabParentObject: {fileID: 0}
  m_PrefabInternal: {fileID: 100100000}
  m_GameObject: {fileID: 100010}
  m_Enabled: 1
  m_EditorHideFlags: 0
  m_Script: {fileID: 11500000, guid: c6fc6a2df5a7e4241b1986eba1d98aad, type: 3}
  m_Name: 
  m_EditorClassIdentifier: 
  Quad: {fileID: 4300000, guid: 72d48481420e74e6ab1ff98ea81e467d, type: 3}
  SphereHigh: {fileID: 4300000, guid: e5e4d9780cefe4fe8b5997d295e3fc99, type: 3}
  SphereMedium: {fileID: 4300000, guid: 247a10c476e114b59ac08e7a80740c48, type: 3}
  SphereLow: {fileID: 4300000, guid: 4c4c32028b61a48ce945c3c8ab9124b9, type: 3}
  IcosphereHigh: {fileID: 4300000, guid: f9321b1b02f3747ea975a6ac95e4f1a5, type: 3}
  IcosphereMedium: {fileID: 4300000, guid: e97492d2605dd44509f4c4096c38f1ad, type: 3}
  IcosphereLow: {fileID: 4300000, guid: cd9ecb4203db9401eadb5a03d8f30585, type: 3}
  HalfIcosphereHigh: {fileID: 4300000, guid: 2b97ce8bbd92c4fe89a35b45df219ed8, type: 3}
  HalfIcosphereMedium: {fileID: 4300000, guid: 9a2e685b61e1c447493e09292b6f19af, type: 3}
  HalfIcosphereLow: {fileID: 4300002, guid: e2e20e1c5eb5a4dab9e8293670751154, type: 3}
  CloudMaterialBumped: {fileID: 2100000, guid: 2d294b9b8546c49a1aea2f94bcffa143, type: 2}
  CloudMaterialDensity: {fileID: 2100000, guid: 2ee432f0aa2d1493dadbc60eb2816d59,
    type: 2}
  CloudMaterialFastest: {fileID: 2100000, guid: 96275e4b9ddd1421bb1aba50171a3d17,
    type: 2}
  ShadowMaterialBumped: {fileID: 2100000, guid: a536ecc04579a4a7d8ec46faa142cd00,
    type: 2}
  ShadowMaterialDensity: {fileID: 2100000, guid: 983ba30933a1e4882919f2feed50fed5,
    type: 2}
  ShadowMaterialFastest: {fileID: 2100000, guid: c5d8926cb8d1e4771ba087e03bb41d9e,
    type: 2}
  SpaceMaterial: {fileID: 2100000, guid: 783a84bd037e94563b5800fee6d80236, type: 2}
  AtmosphereMaterial: {fileID: 2100000, guid: ae3989796c2a72248a02612611f06beb, type: 2}
  SunMaterial: {fileID: 2100000, guid: a58b7582af81445b2b65582c333c81cf, type: 2}
  MoonMaterial: {fileID: 2100000, guid: 9bd49f273bcad4f65b15d63204880849, type: 2}
--- !u!119 &11900000
Projector:
  m_ObjectHideFlags: 1
  m_PrefabParentObject: {fileID: 0}
  m_PrefabInternal: {fileID: 100100000}
  m_GameObject: {fileID: 100014}
  m_Enabled: 0
  serializedVersion: 2
  m_NearClipPlane: 0
  m_FarClipPlane: 800
  m_FieldOfView: 90
  m_AspectRatio: 1
  m_Orthographic: 1
  m_OrthographicSize: 400
  m_Material: {fileID: 2100000, guid: a536ecc04579a4a7d8ec46faa142cd00, type: 2}
  m_IgnoreLayers:
    serializedVersion: 2
    m_Bits: 16
--- !u!1001 &100100000
Prefab:
  m_ObjectHideFlags: 1
  serializedVersion: 2
  m_Modification:
    m_TransformParent: {fileID: 0}
    m_Modifications: []
    m_RemovedComponents: []
  m_ParentPrefab: {fileID: 0}
  m_RootGameObject: {fileID: 100010}
  m_IsPrefabParent: 1
  m_IsExploded: 1
